1000
6
12
16
95
10001
12345
11
111
11111
111111
1111111
1000000000000000000
3481031637415513088
3847605436347574272
4271725519418489856
1623200886207766528
5061756474946624512
2319387364492657664
6765964935099792384
9021693192658960384
2937338911609950208
6556832350846629888
1644301930187110400
2569836197592727552
9106647188887933952
1879956010474287104
9130846597092088832
8425927843749521408
8366312326702060544
4302068308812869632
4046042313165577216
5962441976473802752
1553142238707142656
8832719662744986624
8934699950163594240
4691627098132213760
8406107195667999744
6812428844447870976
3047022997566154752
6690644072809955328
8184330481050781696
5345850890318366720
319294340868271104
3536004701002216448
1226406468352999424
7741697589348871168
955524489430146048
3463539608980984832
53971535241397248
8019976546576748544
3970218906886560768
4098890677084329984
3447139442359758848
2872412226694944768
547616128317423616
3122007500379601920
4154198073415946240
6204317258155324416
3225765841911271424
1788276318015358976
5786936424675243008
9205470919204925440
2748409480661017600
2390800672434433024
6123311848841068544
2601396922010613760
2366783749819136000
9152079971701880832
7054513257120267264
4699128632423266304
8409898424790312960
3455484607745004544
3732405449485806592
7901821915532632064
6082839848395298816
128482692845855744
2147606592418697216
5874999073670953984
4189402989929229312
2151299743662978048
346321683605617664
293798081859599360
7340411054190702592
8151049621222279168
4944111548279550976
4752434456387965952
7072199760059176960
537325304781134848
6561458819287866368
1348475774559529984
8621059879464375296
2148140053622831104
4808472374828381184
5387327596671261696
4580087890595127296
5701451564326014976
624944298390700032
7036318341803315200
2346300473382885376
6108805648592125952
6773263022670262272
5992233866772822016
8171740326172033024
6617620360396041216
3459723276517090304
3774245616667102208
4632403969777277952
7856021333615116288
3390467747936027648
5504842812954023936
6148043133508155392
6192993314590527488
2150836039652133888
6561244318323528704
8239929065842622464
7407296999844355072
5253967793542929408
5097222277498874880
1286469790175531008
3481097412425031680
2232958987800396800
3225748778520911872
8813145577233905664
4206241925399721984
1246170595587072000
5094203274931058688
7139729548790373376
7810296229004414976
2586397833675169792
4708586329995785216
2555938679337729024
1515658979562589184
7792093325222776832
75125849585123328
8366979318725916672
2862066207888593920
2649225643438357504
7006125915331646464
3370583774818910208
7111495748601467904
8998545770304301056
4909122409601911808
3452199841571652608
2400342660752533504
6385136705758837760
4745508968290768896
664408896005215232
2499446744955212800
6913642263103730688
8429376835975344128
1439129212621351936
394267664906181632
8199188763830225920
4978866804027757568
2696141450220766208
2755804603647939584
6842719193626426368
2788686253685855232
3415320518090825728
7964147224283821056
3639663954943975424
1312648095629339648
8268294934157927424
8581970440178313216
4770245976918631424
8260194474159820800
1783727903781689344
2951382643165106176
5466536279501419520
9144599487651300352
908843817515274240
4956021959640066048
126308860715417600
6329638361963584512
4995957409157766144
7600612402143071232
1855998551022915584
6832374593716130816
6651043556989744128
6273251238631587840
4101846649666765824
602565614764681216
5493436628024112128
4862678406441389056
7953915276401915904
8081832322176832512
571678026155998208
2599477029310582784
6799299286775469056
3080713855430979584
4599417197690990592
5652060726180348928
4585394237624453120
4310226369602322432
2956186024794626048
5231542505687766016
7161744895543734272
3922002110157192192
7496378228104866816
625825134428122112
2955372970117274624
6884030439335601152
7288679627015704576
4683630716217050112
9015264754090727424
3551170115012137984
5186340691035277312
2748945359235660800
6088981923454980096
6385262032475640832
2536644062071104512
7012006327626047488
8768953133604590592
3826503062339113984
8754295846771191808
1835083584695025664
9001178579380262912
407390147645023232
4017808554965936128
3101987272392308736
2622831977065851904
4847880116932827136
646620425981974528
5045887270240831488
6646910837502519296
3880093856126711808
219153371061495808
4547956260510687232
6546284465699783680
956988020340801536
2023578308894585856
7596313647628822528
8679034554881374208
4344831638879123456
1945017647715470336
5361900755592506368
1585119118713697280
8679878889699458048
5605629103331576832
7697124955070645248
7006818749123169280
2153100537456351232
4318865427067597824
7752975951260304384
5285747997339150336
4870565336510792704
5354442812693620736
6827470024630173696
1251038270333547520
1163944322084129792
6510504224180228096
3495383194857444352
1938835459030585344
6108330323111202816
6147240958664055808
3299918576517466112
5030057428136722432
2290549400203549696
5782088601217554432
7621882785480870912
1606192889799140352
6198433756243487744
366003479714429952
7832896193641256960
4434011562697248768
8434756782602767360
4655924039567722496
3678434144424193024
2138448308392747008
7440578085679832064
2086025108998009856
1470853560483638272
8370732293566809088
5537295373681552384
7749325049963062272
3346056242103283712
8855117527603466240
5477084021176482816
1269848981567562752
7529383892431588352
731511347224251392
6681225635686553600
5574367066108182528
1266743707929896960
1386754509110952960
1976126822518237184
7049717096858649600
8826495727703476224
3235640279212268544
8684249326130607104
246447069466700800
4821098597569996800
6962495196118356992
1807389632116442112
999390052297134080
6392776199874607104
8173275957268786176
8069292529070547968
1224204207170374656
7316546975697373184
8233660097244061696
9013567371032656896
1760283781558322176
1650200296144993280
3740624359140082688
4247678687052388352
4519539879184842752
5935141480106978304
6325742131432099840
1293508103625982976
1970852044941766656
9173194257672074240
3372633152442314752
3065406587746799616
8015812359905278976
2075105384699183104
8714619516788528128
3369201960100274176
1922592566245531648
6537226932762974208
2007594206319837184
8498766533652875264
7157653161040523264
7036459419115485184
8976585694906950656
3756418750583541760
6960389966028369920
6767205943425931264
5884832273832679424
1814752212086261760
592052926320599040
4519944161904790528
97516039889207296
5943587935182331904
5524694653671327744
7705310225839437824
8081336922424054784
2051280536134838272
752706350577274880
8181730069282881536
768725763688640512
3895218697725953
2379126948759374848
8422221342629773312
5659965068639429632
8830175913677600768
568606204671921152
4304115181101835264
2615945263379858432
2682921694965597184
8628853415522988032
8400397078144088064
9033735775456344064
8979967833013067776
6581023189689625600
5446741245539402752
6868093596468974592
2715348692268652544
3121406097706839040
8980968338466455552
5679950202721735680
167097723649836032
2027826870717091840
526839605638152192
7683730745622266880
918226005447693312
2031280295389217792
1978188814447800320
8664409308152870912
5486709234562980864
907835220529502208
4134604817007835136
3019835214965289984
4872758338844519424
6800619227213431808
6458197611865437184
9147200909549318144
9153190476391586816
5855594605257554944
4367271236258469888
5552936911783992320
6333096657147960320
8742499164972514304
4847127642285094912
4835500466336877568
3990887091394200576
7780855552962717696
7376301026356909056
798357252666126336
8699958242082039808
334876247250749440
774327531323274240
1953517923808522240
2466487230411153408
1512150253800218624
969687604941252608
4793344258959094784
8182043708917407744
879325396213646336
8310562062947674112
1286026875845327872
3661003249916739584
3213101342092552192
3181985182121202688
7080839743735868416
594757019601213440
5047459409195541504
5927827831663581184
8827873792500374528
3118836017903222784
2305695323694485504
4319006578945337344
2088214413272246272
5041231027887451136
4951425564022853632
1493727985386952704
3197241873438295040
5690044169090546688
4301529238653447168
671602857969348608
706487714727085056
5792786240776635392
8096423184944760832
6431057783920114688
6413844116895395840
3787783693529079808
429860765386528768
6804130576041889792
8415122294565067776
1916319657258519552
3549144907619717120
5403627509627970560
1120695265056008192
5692559879130193920
6628409346158329856
192660870493119488
4720179975355996160
6013833335269110784
6205952964324518912
971818349485897728
2259648066626990080
7149969808157634560
3174055476590972928
3324870292101257216
7096332547527814144
1765849021075652608
6979170661575422976
2829657461630624768
3220910332992660480
4728632391120211968
5141419333196659712
3393936651235386368
557785263065829376
1403505223015035904
290475980283493376
8785103311411879936
7631325758767094784
4136903958202765312
7344428164289364992
2320416270973942784
5127731915027152896
5275213265359019008
4311811064839826432
8504342739239612416
540527112338636800
6672927923856047104
1667057055551925248
3303202344562255872
2379481768782071808
20984266352299008
923436860271324160
6453239626001504256
994455246726985728
5405274253743157248
8740847370982639616
660926094224978944
7153934803097187328
5046172824881291264
1365762457533737984
7434702749261554688
8250178714098595840
6540523295665047552
3669053239800013824
5137515400358260736
1014860127019950080
4048159880026375168
3145570578622638080
2660293390211230720
6679935670971826176
1506269286967981056
5184728179410659328
800891084535265280
8934967256337787904
6483704787692641280
2668096038831531008
5823607644578124800
3027346319914684416
2051304968066949120
416730639872259072
8670780918367793152
3492424017371888640
6555200932464878592
9011328045106209792
6481381417413345280
7420984980712323072
3939546230457763840
6932762757667814400
1018991902761665536
5692844218646021120
6204902674335699968
6564756142892860416
5501998774003392512
983550381937412096
5374512229684866048
4185340374571281408
2887134626943656960
6744480275037010944
3434249802787206144
1028053508941714432
4499036339585067008
8967692789462948864
5682841086131099648
3748005999392754688
249615623954385920
1502982642473821184
6368584715200697344
8869883808257670144
7940751287678949376
4050404796054183936
4324878661302917120
4302738693361688576
5201948144158097408
2332821255235568640
6666182718326703104
226805495179781120
6698545880661720064
3136391097488029696
4159480715439080448
3920470636727153664
3670979466864888832
5895391085659662336
4973697540425475072
1218906279752269824
6337005900391455744
3903659498328332288
6749265385672573952
4674786646090554368
2288188232040383488
7583517350091074560
8191887902221341696
1338951200127141888
8956627761669625856
9149603715837231104
8245140591014248448
2274963399368571904
5991427442675122176
3830577671832613888
3631683469592398848
5630567914423025664
7280142123233199104
1920057524960588800
6694776487901324288
1827205329474418688
34003278355063808
7838665555163193344
456845108863611904
1827776868306710528
5862332779168141312
4187443444559495168
6255413573432159232
1681683274147919872
3162448805708929024
5118957105961411584
531013326679577600
2315635439212309504
3598730856498522112
3661833125840745472
6097250247464672256
309294402997992448
2775781668777498624
8127596245263398912
2900451617134783488
259592409327373312
3141631984603366400
6016562323199225856
982971091853015040
447550195070712832
236615146341783552
2651370833419804672
875687252855490560
4375009192358327296
4457247172827717632
1723907956179523584
4368092587635380224
5507593916681633792
205341957550562304
5178407899337219072
6768069608432549888
5519503114839920640
6627257253961271296
7937061350612867072
5715536174409630720
5540181510024975360
1535377314912415744
849733667586327552
3292525434260353024
7297763818193931264
7410389737537242112
6895704891446748160
6607998051678008320
7704549498864555008
3456433744112904192
4285356051523725312
8878171220394064896
6143303990864766976
1608851722454463488
1243349981156980736
5846355789878166528
2469224092319110144
6185154811393940480
8269027019039584256
3712426552752985088
2338246888854234112
37043209121444864
3122054150577804288
8942385170754398208
8110725663596037120
5855021054442730496
2633429963238621184
605689421979708416
5834273823651335168
962094802689861632
6800290541361613824
1369323030035765248
6340567961843551232
4410028117703759872
8185696575472765952
2890535560743632896
3043687532204846080
4988941056732676096
6118951325199363072
2483719908350285824
8471904993088530432
2072248740105829376
8255412309213529088
8926980478417441792
649346687688042496
647790660322358272
442477175123728384
5743225192056646656
5004311430517903360
6862838644264606720
4017862399850508288
3730260731965749248
6533655020467869696
7045017668644881408
8894919432265330688
532412168858250240
5756247292359642112
5728166714784643072
6999382510849315840
447271594082238464
3923439250973355008
3989928112093476864
4286126397501399040
5736805085044075520
1822350868998745088
925917523389422592
5838445194426942464
3022826625089423360
4823514687853892608
6590809484266462208
3257104150807615488
1394254250012053504
5756569176526881792
5494302790983801856
2022189031921472512
3510417495816828928
3639784997411163136
8663937851752105984
7300497231849873408
6770157714640306176
5869954768557388800
4613824900511275008
8709756101557282816
660796144689839104
4686710653485765632
1220406288605257728
8126812722305150976
2106546683335257088
4879193696165797888
2657340311520159744
1293368070378595328
1057418939421737984
4431911019496781824
7123689564426339328
5675062221528717312
2343451632036449280
1853126494862030848
1328857613085312000
4344723313796265984
3267126178595165184
5327325504780617728
1529730749418185728
7819087859953266688
3120998239569880064
71291470102966272
5628387217948251136
3838054505337856000
4673765720019283968
2031621040932511744
5078916940738608128
1573418052746170368
1291869275618081792
5810530790239864832
9112056339388585984
3036326019621787648
8404703085658760192
3038209760321577984
2702483952499427328
7812189763808632832
8555082612819175424
3828281927836829696
4456260394585740288
7777313610866438144
842632636599862272
5455135336015886336
7294523219731763200
1779109061034002432
6797988637330914304
8297489149051648000
3076864749549687808
5903317239069256704
1648158994716273664
9009622713339646976
8734162703606996992
481113832029322240
8176796270742985728
4329377040505631744
3743451930731489280
7884095049689477120
4599921878897592320
858606579350040576
2993571107584709632
2398306459423913984
7113523050213553152
3354539491302037504
8404511918467073
5850898481017558016
8023141637465160704
1889720487114263552
3225372303501576192
2204154919327024128
1074732755424242688
4440160906565601280
7895994960236134400
5713234359878616064
3841904778620011520
25281564379591680
1592500732198249472
1124518347525172224
1048851594415982592
6415155877814335488
5368772964130822144
3411286173979634688
8733913639803262976
4176021150191909888
483327200188061696
433508940781830144
1061558012849094656
5843313062966810624
212407023842909184
23705509246011392
1811337258957587456
2851922741684321280
3476427440709146624
4783525280135290880
7501789864553374720
1200708859182491648
2564122221985779712
5182370146587663360
4492125028442786816
1124996400097744896
6299156492949104640
9032408483093490688
752456040388445184
7472762156105264128
3433741662286787584
8221664741550597120
5576407007014882304
7573387890996115456
2659924933554375680
9100115907451786240
8297061286605288448
4681793969937512448
7531944664311092224
252777658309082112
8697520141161553920
1939384380574829568
3693167566353880064
5906178963436161024
387321008368081920
4416215421962379264
5005509153635958784
3532140545231599616
2007688802752605184
8773445770372961280
7498235473644950528
1415163598186547200
4192215387971706880
5686569322557243392
8792814267037259776
2235375200210089984
2752376602917264384
8037233050421906432
5133238927712120832
6569946143264528384
4551293385762435072
1121120312727076864
694193766249691136
3095352355139067904
8875140911451891712
6240260377287574528
1050244788664273920
188106842508886016
4194246891952376832
3128716036030417920
492452897725551616
4723572687478188032
5695319167816648704
3694828481624591360
593961284146993152
1563519016502238208
628693658528133120
6622256072189319168
4372731736747333632
7228070843930330112
2762646152504838144
1608113248457373696
2502233479680674816
6769308532096106496
8138826798099391488
892756920590788608
2365342665683747840
2356065421992194048
4511773908739862528
1345306711078384640
8982397619799779328
2132808766751101952
6612393007219523584
7179269585075078144
916518025425639424
6599259027087326208
5112940851591763968
5843792859760600064
3679788177706266624
3181187346015780864
5590579732468028416
881905729041952768
6667967118905712640
8314727190661149696
7987168897357683712
7794056604374089728
6957846201993262080
5098655457450213376
8412860933818337280
3946190881235240960
3618954074630958080
6591449421962588160
8196600184326661120
6849107603596900352
6620489069131041792
519812414827890688
4899465554328536064
8063506060747172864
4267319964658081792
8303731930649055232
7353635965833647104
8196320462218139648
7235083046678714368
1428584334049158144
3416136758313841664
380774466749431808
8600663610550064128
8895940601845760000
3871181243745020928
3248295613561545728
798362389159394304
4238059238089594880
4791226402452510720
6006885958596162560
2262645383045725184
3195546624038366208
5139225225961841664
78792230736850944
5058235825742620672
5453065975385407488
7328456833236495360
8568962187194185728
7621389401120917504
1070356805131308032
9061745064206745600
7514932127564240896
4515619762313238528
2379112219759718400
5337312920933022720
8982405454547620864
858609385112236032
6604898070039437312
6150854128068874240
8229925581874396160
371160801319846912
7880866554306745344
1249107177849739264
5289171642948125696
8566024286325767168
4787117833080828928
340723595191134208
4603269668321117184
9052674638396356608
9042112033484493824
7575736246292159488
1542571476455742464
7888565284655281152
2002401958355014656
2872793944585971712
2060288244948854784
8062287268761764864
4799135405577118720
8050628356242301952
8448796480479735808
3652855973567818752
2917065135987120128
2026491907305581568
9046281254601203712
5432191023624435712
1670937378964406272
6394536653386227712
781206300063227904
3365875154065227776
2330116760499643392
6009236513738107904
5969181544133356544
5555384061472324608
5812814924156169216
7530155018943543296
1803443128804478976
656179288631563264
8314346657064786944
370936054420707328
3771164395615425536
6175128713691410432
5808855235284939776
8959668721357597696
6074683087400349696
6248930888812646400
4593157863313945600
4878796623821007872
1500842569471700992
6825375079293405184
7488322641310117888
8538222012297247744
7718492636270819328
1851123291238295552
2213083491425624064
2042353718847549440
5051661477945350144
2096867270252410880
9112699048321742848
288641049964981248
6937611399561863168
8223884298655635456
836376198720988160
623209118892060672
4060167067792665600
9196473170530484224
1276788951736610816
5995565747949196288
8213400464344068096
9079356874132480000
5101926427021690880
1707698844334178304
9177839973541779456
6329048379719264256
4386171478839085056
8155550577504947200
7487797212345203712
477701884423230464
4000931120888436736
6161450204785064960
5204992361508621312
2001756580520902656
2081797590382129152
2653673145934967808
4824949207425422336
4207125062449724416
7987021026867802112
1676440057946147840
699088080814540800
9223372036854775807
