queenelizabeth
mom
dad
unclebob
chair
==============================
queenelizabeth
god
unclesam
mom
dad
unclebob
chair
==============================
bob
==============================
002
012
022
032
042
052
062
072
082
092
006
008
016
018
026
028
036
038
046
048
056
058
066
068
076
078
086
088
096
098
005
015
025
035
045
055
065
075
085
095
000
010
020
030
040
050
060
070
080
090
001
004
011
014
021
024
031
034
041
044
051
054
061
064
071
074
081
084
091
094
009
019
029
039
049
059
069
079
089
099
003
013
023
033
043
053
063
073
083
093
007
017
027
037
047
057
067
077
087
097
==============================
